RTL/RTL_0/RTL/fpu/fadd_tb.vcd
$date
	Sat Aug 30 23:37:19 2025
$end
$version
	Icarus Verilog
$end
$timescale
	10ps
$end
$scope module fadd_s_tb $end
$var wire 32 ! res [31:0] $end
$var wire 1 " ovf $end
$var wire 1 # enable_out $end
$var reg 1 $ clk $end
$var reg 1 % enable_in $end
$var reg 1 & rst_n $end
$var reg 32 ' x1 [31:0] $end
$var reg 32 ( x2 [31:0] $end
$scope module uut $end
$var wire 1 $ clk $end
$var wire 1 % enable_in $end
$var wire 1 # enable_out $end
$var wire 8 ) exp_norm_x2_i [7:0] $end
$var wire 1 * round_up $end
$var wire 1 & rst_n $end
$var wire 32 + x1 [31:0] $end
$var wire 32 , x2 [31:0] $end
$var wire 32 - y [31:0] $end
$var wire 1 . tstck $end
$var wire 9 / te_diff [8:0] $end
$var wire 8 0 tde [7:0] $end
$var wire 1 1 symbol_y $end
$var wire 1 2 symbol_signi $end
$var wire 1 3 symbol_insigni $end
$var wire 1 4 symbol_init_x2 $end
$var wire 1 5 symbol_init_x1 $end
$var wire 1 6 stck $end
$var wire 1 7 sel $end
$var wire 5 8 search_leading_zeros [4:0] $end
$var wire 1 " ovf $end
$var wire 1 9 nzm2 $end
$var wire 1 : nzm1 $end
$var wire 27 ; man_y_sum [26:0] $end
$var wire 27 < man_y_norm [26:0] $end
$var wire 25 = man_y_finorm [24:0] $end
$var wire 27 > man_y_final [26:0] $end
$var wire 23 ? man_y [22:0] $end
$var wire 56 @ man_signi_ext [55:0] $end
$var wire 25 A man_signi [24:0] $end
$var wire 56 B man_insigni_ext [55:0] $end
$var wire 56 C man_insigni_align [55:0] $end
$var wire 25 D man_insigni [24:0] $end
$var wire 23 E man_init_x2 [22:0] $end
$var wire 23 F man_init_x1 [22:0] $end
$var wire 25 G man_ext_x2 [24:0] $end
$var wire 25 H man_ext_x1 [24:0] $end
$var wire 8 I exp_y_final [7:0] $end
$var wire 8 J exp_y [7:0] $end
$var wire 8 K exp_signi_increase [7:0] $end
$var wire 8 L exp_signi [7:0] $end
$var wire 8 M exp_norm_x2 [7:0] $end
$var wire 8 N exp_norm_x1 [7:0] $end
$var wire 9 O exp_norm_temp [8:0] $end
$var wire 8 P exp_norm_i [7:0] $end
$var wire 8 Q exp_norm [7:0] $end
$var wire 8 R exp_init_x2 [7:0] $end
$var wire 8 S exp_init_x1 [7:0] $end
$var wire 5 T de [4:0] $end
$var wire 1 U ce $end
$var reg 5 V de_st1 [4:0] $end
$var reg 1 W enable_in_st1 $end
$var reg 1 X enable_in_st2 $end
$var reg 8 Y exp_init_x1_st1 [7:0] $end
$var reg 8 Z exp_init_x1_st2 [7:0] $end
$var reg 8 [ exp_init_x2_st1 [7:0] $end
$var reg 8 \ exp_init_x2_st2 [7:0] $end
$var reg 8 ] exp_signi_increase_st2 [7:0] $end
$var reg 8 ^ exp_st1_x1 [7:0] $end
$var reg 8 _ exp_st1_x2 [7:0] $end
$var reg 8 ` exp_y_final_st2 [7:0] $end
$var reg 23 a man_init_x1_st1 [22:0] $end
$var reg 23 b man_init_x2_st1 [22:0] $end
$var reg 25 c man_st1_x1 [24:0] $end
$var reg 25 d man_st1_x2 [24:0] $end
$var reg 23 e man_st2_x1 [22:0] $end
$var reg 23 f man_st2_x2 [22:0] $end
$var reg 27 g man_y_final_st2 [26:0] $end
$var reg 27 h man_y_sum_st2 [26:0] $end
$var reg 1 i sel_st1 $end
$var reg 5 j slz_st2 [4:0] $end
$var reg 1 k stck_st2 $end
$var reg 1 l symbol_signi_st2 $end
$var reg 1 m symbol_st1_x1 $end
$var reg 1 n symbol_st1_x2 $end
$var reg 1 o symbol_st2_x1 $end
$var reg 1 p symbol_st2_x2 $end
$upscope $end
$upscope $end
$enddefinitions $end
$comment Show the parameter values. $end
$dumpall
$end
#0
$dumpvars
xp
xo
xn
xm
xl
xk
bx j
xi
bx h
bx g
bx f
bx e
bx d
bx c
bx b
bx a
bx `
bx _
bx ^
bx ]
bx \
bx [
bx Z
bx Y
xX
xW
bx V
xU
bx T
bx S
bx R
bx Q
bx P
bx O
bx N
bx M
bx L
bx K
bx J
bx I
b0xxxxxxxxxxxxxxxxxxxxxxxx H
b0xxxxxxxxxxxxxxxxxxxxxxxx G
bx F
bx E
bx D
bx C
bx0000000000000000000000000000000 B
bx A
bx0000000000000000000000000000000 @
bx ?
bx >
bx =
bx <
bx ;
x:
x9
bx 8
x7
x6
x5
x4
x3
x2
x1
bx 0
bx /
x.
bx -
bx ,
bx +
x*
bx )
bx (
bx '
1&
0%
0$
x#
x"
bx !
$end
#500
b0xxxxxxxxxxxxxxxxxxxxxxxx0000000000000000000000000000000 @
b0xxxxxxxxxxxxxxxxxxxxxxxx A
b0xxxxxxxxxxxxxxxxxxxxxxxx0000000000000000000000000000000 B
b0xxxxxxxxxxxxxxxxxxxxxxxx D
0W
b0xxxxxxxxxxxxxxxxxxxxxxxx d
b0xxxxxxxxxxxxxxxxxxxxxxxx c
1$
#1000
0$
0&
#1500
b0 !
b0 -
0*
b0 ?
b11011 8
0"
06
b0 =
b0 J
b0 I
b0 >
01
b1 P
b0 Q
b0 <
b0 ;
b1 K
b0 L
0.
02
03
b0 @
b0 A
b0 B
b0 D
0#
0X
09
b0 f
0:
b0 e
b0 h
b0 g
0p
0o
0l
b0 \
b0 Z
b0 ]
b0 O
b0 `
b0 j
0k
b0 _
b0 ^
b0 [
b0 Y
0i
b0 C
b0 V
0n
0m
b0 d
b0 c
b0 b
b0 a
1$
#2000
b1 T
1U
b1 0
07
b10000000 )
b1 /
b1111111 M
b110000000000000000000000 G
b10000000 N
b101000000000000000000000 H
04
b1111111 R
b10000000000000000000000 E
05
b10000000 S
b1000000000000000000000 F
0$
1%
b111111110000000000000000000000 (
b111111110000000000000000000000 ,
b1000000001000000000000000000000 '
b1000000001000000000000000000000 +
1&
#2500
b0 8
b10000000000000000000000000 >
b10000001 I
b100000000000000000000000000 ;
b1 P
b0 Q
b10000001 K
b10000000 L
b110000000000000000000000000000000000000000000000000000 C
b1100000000000000000000000000000000000000000000000000000 B
b110000000000000000000000 D
b1010000000000000000000000000000000000000000000000000000 @
b101000000000000000000000 A
1W
b1111111 _
b10000000 ^
b1111111 [
b10000000 Y
b1 V
b110000000000000000000000 d
b101000000000000000000000 c
b10000000000000000000000 b
b1000000000000000000000 a
b1111111 \
b10000000 Z
b1 ]
b111100101 O
b11011 j
1$
#3000
0$
#3500
b1000000100000000000000000000000 !
b1000000100000000000000000000000 -
b10000001 J
b100000000000000000000000 =
b10000010 P
b10000001 Q
b10000000000000000000000000 <
1#
1X
19
b10000000000000000000000 f
1:
b1000000000000000000000 e
b100000000000000000000000000 h
b10000000000000000000000000 g
b10000001 ]
b10000001 `
b10000001 O
b0 j
1$
#4000
b110 T
b110 0
b10000011 )
b1111100 M
b100000000000000000000000 G
b110 /
b10000010 N
b1111100 R
b0 E
b10000010 S
0$
b111110000000000000000000000000 (
b111110000000000000000000000000 ,
b1000001001000000000000000000000 '
b1000001001000000000000000000000 +
1%
#4500
b10100010000000000000000000 >
b10000010 I
b10100010000000000000000000 ;
b10000011 K
b10000010 L
b1000000000000000000000000000000000000000000000000000000 B
b100000000000000000000000 D
b1111100 _
b10000010 ^
b1111100 [
b10000010 Y
b1000000000000000000000000000000000000000000000000 C
b110 V
b100000000000000000000000 d
b0 b
b1111100 \
b10000010 Z
1$
#5000
0$
#5500
b1000001001000100000000000000000 !
b1000001001000100000000000000000 -
b1000100000000000000000 ?
b10000010 J
b101000100000000000000000 =
b10000011 P
b10000010 Q
b10100010000000000000000000 <
09
b0 f
b10100010000000000000000000 h
b10100010000000000000000000 g
b10000011 ]
b10000010 O
b10000010 `
1$
#6000
b1 T
b1 0
b1111110 )
b1 /
b10000001 M
b101000000000000000000000 G
14
b10000001 R
b1000000000000000000000 E
0$
b11000000101000000000000000000000 (
b11000000101000000000000000000000 ,
1%
#6500
b1000001010001000000000000000000 !
b1000001010001000000000000000000 -
b10001000000000000000000 ?
b1010001000000000000000000 =
b101000100000000000000000000 <
b1 8
b1010000000000000000000000 >
b1010000000000000000000000 ;
13
b1010000000000000000000000000000000000000000000000000000 B
b101000000000000000000000 D
b10000001 _
b10000001 [
b101000000000000000000000000000000000000000000000000000 C
b1 V
1n
b101000000000000000000000 d
b1000000000000000000000 b
b10000001 \
1$
#7000
0$
#7500
b1000000101000000000000000000000 !
b1000000101000000000000000000000 -
b1000000000000000000000 ?
b10000001 J
b101000000000000000000000 =
b10000010 P
b10000001 Q
b10100000000000000000000000 <
19
b1000000000000000000000 f
b1010000000000000000000000 h
b1010000000000000000000000 g
1p
b10000001 O
b1 j
1$
#8000
b0 T
b0 0
b1111111 )
b10000000 M
b100000000000000000000000 G
b0 /
b10000000 N
b100000000000000000000000 H
04
b10000000 R
b0 E
b10000000 S
b0 F
0$
b1000000000000000000000000000000 (
b1000000000000000000000000000000 ,
b1000000000000000000000000000000 '
b1000000000000000000000000000000 +
1%
#8500
b1000000110100000000000000000000 !
b1000000110100000000000000000000 -
b10100000000000000000000 ?
b10100000000000000000000 =
b1010000000000000000000000 <
b0 8
b10000000000000000000000000 >
b10000001 I
b100000000000000000000000000 ;
b10000001 K
b10000000 L
03
b1000000000000000000000000000000000000000000000000000000 B
b100000000000000000000000 D
b1000000000000000000000000000000000000000000000000000000 @
b100000000000000000000000 A
b10000000 _
b10000000 ^
b10000000 [
b10000000 Y
b1000000000000000000000000000000000000000000000000000000 C
b0 V
0n
b100000000000000000000000 d
b100000000000000000000000 c
b0 b
b0 a
b10000000 \
b10000000 Z
1$
#9000
0$
#9500
b1000000100000000000000000000000 !
b1000000100000000000000000000000 -
b0 ?
b100000000000000000000000 =
b10000000000000000000000000 <
09
b0 f
0:
b0 e
b100000000000000000000000000 h
b10000000000000000000000000 g
0p
b10000001 ]
b10000001 `
b10000001 O
b0 j
1$
#10000
b11111110 )
b0 G
b1 M
b0 H
b0 /
b1 N
b0 R
b0 S
0$
b0 (
b0 ,
b0 '
b0 +
1%
#10500
b0 !
b0 -
b0 J
b0 =
b0 <
b11011 8
b0 >
b1 I
b0 ;
b10 K
b1 L
b0 C
b0 B
b0 D
b0 @
b0 A
b1 _
b1 ^
b0 [
b0 Y
b0 d
b0 c
b0 \
b0 Z
1$
#11000
0$
#11500
b1 P
b0 Q
b0 h
b0 g
b10 ]
b1 `
b111100110 O
b11011 j
1$
#12000
0U
b11 T
b11 0
17
b1110111 )
b10001000 M
b101000110010101001100010 G
b111111101 /
b10000101 N
b111101110101001101001001 H
b10001000 R
b1000110010101001100010 E
b10000101 S
b11101110101001101001001 F
0$
b1000100001000110010101001100010 (
b1000100001000110010101001100010 ,
b1000010111101110101001101001001 '
b1000010111101110101001101001001 +
1%
#12500
b0 8
16
1.
b11000010000101001100101100 >
b10001000 I
b11000010000101001100101100 ;
b10001001 K
b10001000 L
b1111011101010011010010010000000000000000000000000000 C
b1111011101010011010010010000000000000000000000000000000 B
b111101110101001101001001 D
b1010001100101010011000100000000000000000000000000000000 @
b101000110010101001100010 A
b10001000 _
b10000101 ^
b10001000 [
b10000101 Y
1i
b11 V
b101000110010101001100010 d
b111101110101001101001001 c
b1000110010101001100010 b
b11101110101001101001001 a
b10001000 \
b10000101 Z
1$
#13000
0$
#13500
b1000100010000100001010011001011 !
b1000100010000100001010011001011 -
b10001000 J
b10000100001010011001011 ?
b10001001 P
b10001000 Q
b110000100001010011001011 =
b11000010000101001100101100 <
19
b1000110010101001100010 f
1:
b11101110101001101001001 e
b11000010000101001100101100 h
b11000010000101001100101100 g
b10001001 ]
b10001000 `
b10001000 O
b0 j
1k
1$
#14000
b11000 T
1U
b10000000 0
b10000000 )
07
b1111111 M
b100000000000000000000000 G
b10000000 /
b11111111 N
b100000000000000000000000 H
b1111111 R
b0 E
b11111111 S
b0 F
0$
b111111100000000000000000000000 (
b111111100000000000000000000000 ,
b1111111100000000000000000000000 '
b1111111100000000000000000000000 +
1%
#14500
b10000000000000000000000010 >
b11111111 I
06
b10000000000000000000000010 ;
b1111111111101110101001101001001 !
b1111111111101110101001101001001 -
b0 K
b11111111 L
0.
b1000000000000000000000000000000000000000000000000000000 @
b100000000000000000000000 A
b1000000000000000000000000000000000000000000000000000000 B
b100000000000000000000000 D
b1111111 _
b11111111 ^
b1111111 [
b11111111 Y
0i
b1000000000000000000000000000000 C
b11000 V
b100000000000000000000000 d
b100000000000000000000000 c
b0 b
b0 a
b1111111 \
b11111111 Z
1$
#15000
0$
#15500
b0 ?
b11111111 J
b100000000000000000000000 =
b0 P
b11111111 Q
b1111111100000000000000000000000 !
b1111111100000000000000000000000 -
b10000000000000000000000010 <
09
b0 f
0:
b0 e
b10000000000000000000000010 h
b10000000000000000000000010 g
b0 ]
b11111111 O
b11111111 `
0k
1$
#16000
b110000000000000000000000 H
b10000000000000000000000 F
0$
b1111111110000000000000000000000 '
b1111111110000000000000000000000 +
1%
#16500
b11000000000000000000000010 >
b11000000000000000000000010 ;
b1100000000000000000000000000000000000000000000000000000 @
b110000000000000000000000 A
b110000000000000000000000 c
b10000000000000000000000 a
1$
#17000
0$
#17500
b10000000000000000000000 ?
b110000000000000000000000 =
b1111111110000000000000000000000 !
b1111111110000000000000000000000 -
b11000000000000000000000010 <
1:
b10000000000000000000000 e
b11000000000000000000000010 h
b11000000000000000000000010 g
1$
#18000
0$
0%
#18500
0W
1$
#19000
0$
#19500
0#
0X
1$
