RTL/RTL_0/fpu_tb.vcd
$date
	Sun Aug 31 01:01:01 2025
$end
$version
	Icarus Verilog
$end
$timescale
	1ps
$end
$scope module fpu_tb $end
$var wire 32 ! result [31:0] $end
$var wire 1 " mem_we $end
$var wire 32 # mem_wdata [31:0] $end
$var wire 1 $ mem_re $end
$var wire 32 % mem_addr [31:0] $end
$var wire 1 & completed $end
$var reg 1 ' clk $end
$var reg 1 ( enabled $end
$var reg 32 ) freg_rs1 [31:0] $end
$var reg 32 * freg_rs2 [31:0] $end
$var reg 32 + imm [31:0] $end
$var reg 1 , instr_fadd $end
$var reg 1 - instr_fdiv $end
$var reg 1 . instr_flw $end
$var reg 1 / instr_fmul $end
$var reg 1 0 instr_fsw $end
$var reg 32 1 mem_rdata [31:0] $end
$var reg 1 2 mem_ready $end
$var reg 32 3 reg_rs1 [31:0] $end
$var reg 32 4 reg_rs2 [31:0] $end
$var reg 1 5 rst_n $end
$scope module uut $end
$var wire 1 ' clk $end
$var wire 1 ( enabled $end
$var wire 32 6 freg_rs1 [31:0] $end
$var wire 32 7 freg_rs2 [31:0] $end
$var wire 32 8 imm [31:0] $end
$var wire 1 , instr_fadd $end
$var wire 1 - instr_fdiv $end
$var wire 1 . instr_flw $end
$var wire 1 / instr_fmul $end
$var wire 1 0 instr_fsw $end
$var wire 32 9 mem_rdata [31:0] $end
$var wire 1 2 mem_ready $end
$var wire 32 : mem_wdata [31:0] $end
$var wire 32 ; reg_rs1 [31:0] $end
$var wire 32 < reg_rs2 [31:0] $end
$var wire 1 5 rst_n $end
$var wire 32 = fadd_result [31:0] $end
$var wire 1 > fadd_ovf $end
$var wire 1 ? fadd_enable_out $end
$var wire 1 @ fadd_enable_in $end
$var parameter 4 A S_FADD_COMPLETE $end
$var parameter 4 B S_FADD_START $end
$var parameter 4 C S_FADD_WAIT $end
$var parameter 4 D S_FLW_COMPLETE $end
$var parameter 4 E S_FLW_MEM_ACCESS $end
$var parameter 4 F S_FLW_SAMPLE $end
$var parameter 4 G S_FLW_WAIT_READY $end
$var parameter 4 H S_FSW_COMPLETE $end
$var parameter 4 I S_FSW_MEM_ACCESS $end
$var parameter 4 J S_IDLE $end
$var reg 1 & completed $end
$var reg 32 K mem_addr [31:0] $end
$var reg 1 $ mem_re $end
$var reg 1 " mem_we $end
$var reg 32 L result [31:0] $end
$var reg 4 M state [3:0] $end
$scope module fadd_inst $end
$var wire 1 ' clk $end
$var wire 1 @ enable_in $end
$var wire 1 ? enable_out $end
$var wire 8 N exp_norm_x2_i [7:0] $end
$var wire 1 > ovf $end
$var wire 1 O round_up $end
$var wire 1 5 rst_n $end
$var wire 1 P sticky_bit_final $end
$var wire 32 Q x1 [31:0] $end
$var wire 32 R x2 [31:0] $end
$var wire 32 S y [31:0] $end
$var wire 1 T tstck $end
$var wire 1 U tie_even $end
$var wire 9 V te_diff [8:0] $end
$var wire 8 W tde [7:0] $end
$var wire 1 X symbol_y $end
$var wire 1 Y symbol_signi $end
$var wire 1 Z symbol_insigni $end
$var wire 1 [ symbol_init_x2 $end
$var wire 1 \ symbol_init_x1 $end
$var wire 1 ] stck $end
$var wire 1 ^ sel $end
$var wire 5 _ search_leading_zeros [4:0] $end
$var wire 1 ` round_bit $end
$var wire 1 a nzm2 $end
$var wire 1 b nzm1 $end
$var wire 27 c man_y_sum [26:0] $end
$var wire 27 d man_y_norm [26:0] $end
$var wire 25 e man_y_finorm_unrounded [24:0] $end
$var wire 25 f man_y_finorm [24:0] $end
$var wire 23 g man_y [22:0] $end
$var wire 56 h man_signi_ext [55:0] $end
$var wire 25 i man_signi [24:0] $end
$var wire 27 j man_pre_norm [26:0] $end
$var wire 1 k man_overflow $end
$var wire 56 l man_insigni_ext [55:0] $end
$var wire 56 m man_insigni_align [55:0] $end
$var wire 25 n man_insigni [24:0] $end
$var wire 23 o man_init_x2 [22:0] $end
$var wire 23 p man_init_x1 [22:0] $end
$var wire 25 q man_ext_x2 [24:0] $end
$var wire 25 r man_ext_x1 [24:0] $end
$var wire 8 s exp_y [7:0] $end
$var wire 8 t exp_signi [7:0] $end
$var wire 8 u exp_pre_norm [7:0] $end
$var wire 8 v exp_norm_x2 [7:0] $end
$var wire 8 w exp_norm_x1 [7:0] $end
$var wire 9 x exp_norm_temp [8:0] $end
$var wire 8 y exp_norm [7:0] $end
$var wire 8 z exp_init_x2 [7:0] $end
$var wire 8 { exp_init_x1 [7:0] $end
$var wire 5 | de [4:0] $end
$var wire 1 } ce $end
$var reg 5 ~ de_st1 [4:0] $end
$var reg 1 !" enable_in_st1 $end
$var reg 1 "" enable_in_st2 $end
$var reg 8 #" exp_init_x1_st1 [7:0] $end
$var reg 8 $" exp_init_x1_st2 [7:0] $end
$var reg 8 %" exp_init_x2_st1 [7:0] $end
$var reg 8 &" exp_init_x2_st2 [7:0] $end
$var reg 8 '" exp_pre_norm_st2 [7:0] $end
$var reg 8 (" exp_st1_x1 [7:0] $end
$var reg 8 )" exp_st1_x2 [7:0] $end
$var reg 23 *" man_init_x1_st1 [22:0] $end
$var reg 23 +" man_init_x2_st1 [22:0] $end
$var reg 27 ," man_pre_norm_st2 [26:0] $end
$var reg 25 -" man_st1_x1 [24:0] $end
$var reg 25 ." man_st1_x2 [24:0] $end
$var reg 23 /" man_st2_x1 [22:0] $end
$var reg 23 0" man_st2_x2 [22:0] $end
$var reg 1 1" sel_st1 $end
$var reg 5 2" slz_st2 [4:0] $end
$var reg 1 3" stck_st2 $end
$var reg 1 4" symbol_signi_st2 $end
$var reg 1 5" symbol_st1_x1 $end
$var reg 1 6" symbol_st1_x2 $end
$var reg 1 7" symbol_st2_x1 $end
$var reg 1 8" symbol_st2_x2 $end
$upscope $end
$upscope $end
$upscope $end
$enddefinitions $end
$comment Show the parameter values. $end
$dumpall
b0 J
b101 I
b110 H
b10 G
b11 F
b1 E
b100 D
b1000 C
b111 B
b1001 A
$end
#0
$dumpvars
x8"
x7"
x6"
x5"
x4"
x3"
bx 2"
x1"
bx 0"
bx /"
bx ."
bx -"
bx ,"
bx +"
bx *"
bx )"
bx ("
bx '"
bx &"
bx %"
bx $"
bx #"
x""
x!"
bx ~
1}
b0 |
b0 {
b0 z
bx y
bx x
b1 w
b1 v
bx u
bx t
bx s
b0 r
b0 q
b0 p
b0 o
bx n
bx m
bx0000000000000000000000000000000 l
xk
bx j
bx i
bx0000000000000000000000000000000 h
bx g
bx f
bx e
bx d
bx c
xb
xa
x`
bx _
0^
x]
0\
0[
xZ
xY
xX
b0 W
b0 V
xU
xT
bx S
b0 R
b0 Q
xP
xO
b11111110 N
b0 M
b0 L
b0 K
0@
x?
x>
bx =
b0 <
b0 ;
b0 :
b0 9
b0 8
b0 7
b0 6
05
b0 4
b0 3
02
b0 1
00
0/
0.
0-
0,
b0 +
b0 *
b0 )
0(
0'
0&
b0 %
0$
b0 #
0"
b0 !
$end
#5000
b11011 _
b0 =
b0 S
b0 g
0>
0]
b0 f
0O
b0 u
0k
b0 j
b0 s
0P
b0 c
0X
b0 y
0`
0U
b0 e
b0 t
0T
0Y
0Z
b0 h
b0 i
b0 l
b0 n
b0 d
0!"
b0 )"
b0 ("
b0 %"
b0 #"
01"
b0 m
b0 ~
06"
05"
b0 ."
b0 -"
b0 +"
b0 *"
0?
0""
0a
b0 0"
0b
b0 /"
b0 &"
b0 $"
b0 ,"
08"
07"
04"
b0 x
b0 '"
b0 2"
03"
1'
#10000
0'
#15000
1'
#20000
0'
15
#25000
b0 =
b0 S
b0 s
b0 y
b1 u
b1 t
b1 )"
b1 ("
b111100101 x
b11011 2"
1'
#30000
b11000 |
b10000100 W
b10000100 V
b10000101 w
b111101101110011001100110 r
b10000101 {
b11101101110011001100110 p
0'
b1000010111101101110011001100110 #
b1000010111101101110011001100110 :
b1000010111101101110011001100110 )
b1000010111101101110011001100110 6
b1000010111101101110011001100110 Q
b10000000000 3
b10000000000 ;
10
1(
#35000
b0 _
b11110110111001100110011000 j
b11110110111001100110011000 c
b10000101 u
b10000101 t
b1111011011100110011001100000000000000000000000000000000 h
b111101101110011001100110 i
b10000101 $"
b111100110 x
b1 '"
b10000101 ("
b10000101 #"
b11000 ~
b111101101110011001100110 -"
b11101101110011001100110 *"
b101 M
b10000000000 %
b10000000000 K
1'
#40000
0'
12
#45000
b1000010111101101110011001100110 =
b1000010111101101110011001100110 S
b11101101110011001100110 g
b10000101 s
b111101101110011001100110 f
b111101101110011001100110 e
b10000101 y
b11110110111001100110011000 d
1b
b11101101110011001100110 /"
b11110110111001100110011000 ,"
b10000101 '"
b10000101 x
b0 2"
b110 M
1"
1'
#50000
0'
#55000
b0 M
1&
0"
1'
#60000
0'
#65000
0&
1'
02
00
0(
#70000
0'
#75000
1'
#80000
0'
#85000
b1 M
1'
1.
1(
#90000
0'
#95000
b10 M
1$
1'
12
#100000
0'
#105000
b1000010111101101110011001100110 1
b1000010111101101110011001100110 9
b11 M
0$
1'
#110000
0'
#115000
b100 M
b1000010111101101110011001100110 !
b1000010111101101110011001100110 L
1'
#120000
0'
#125000
b0 M
1&
1'
#130000
0'
#135000
0&
1'
02
0.
0(
#140000
0'
#145000
1'
#150000
0'
#155000
1Y
b10001000 $"
b10001000 #"
15"
b11101110110000110011010 *"
b101 M
b10000000100 %
b10000000100 K
b10000111 W
b10000111 V
b10001000 w
b111101110110000110011010 r
1\
b10001000 {
b11101110110000110011010 p
1'
b11000100011101110110000110011010 #
b11000100011101110110000110011010 :
b11000100011101110110000110011010 )
b11000100011101110110000110011010 6
b11000100011101110110000110011010 Q
b100 +
b100 8
10
1(
#160000
0'
#165000
b11000010111101101110011001100110 =
b11000010111101101110011001100110 S
b11110111011000011001101000 j
b11110111011000011001101000 c
b10001000 u
b10001000 t
b1111011101100001100110100000000000000000000000000000000 h
b111101110110000110011010 i
1X
b10001000 ("
b111101110110000110011010 -"
b11101110110000110011010 /"
17"
14"
b110 M
1"
1'
12
#170000
0'
#175000
b11000100011101110110000110011010 =
b11000100011101110110000110011010 S
b11101110110000110011010 g
b10001000 s
b111101110110000110011010 f
b111101110110000110011010 e
b10001000 y
b11110111011000011001101000 d
b11110111011000011001101000 ,"
b10001000 x
b10001000 '"
b0 M
1&
0"
1'
#180000
0'
#185000
0&
1'
02
00
0(
#190000
0'
#195000
1'
#200000
0'
#205000
b1 M
1'
1.
1(
#210000
0'
#215000
b10 M
1$
1'
12
#220000
0'
#225000
b11000100011101110110000110011010 1
b11000100011101110110000110011010 9
b11 M
0$
1'
#230000
0'
#235000
b100 M
b11000100011101110110000110011010 !
b11000100011101110110000110011010 L
1'
#240000
0'
#245000
b0 M
1&
1'
#250000
0'
#255000
0&
1'
02
0.
0(
#260000
0'
#265000
1'
#270000
0'
#275000
0Y
b10000000 $"
b10000000 #"
05"
b10010001111010111000011 *"
b101 M
b100000000000 %
b100000000000 K
b1111111 W
b1111111 V
b10000000 w
b110010001111010111000011 r
0\
b10000000 {
b10010001111010111000011 p
1'
b1000000010010001111010111000011 #
b1000000010010001111010111000011 :
b1000000010010001111010111000011 )
b1000000010010001111010111000011 6
b1000000010010001111010111000011 Q
b0 +
b0 8
b100000000000 3
b100000000000 ;
10
1(
#280000
0'
#285000
b1000100011101110110000110011010 =
b1000100011101110110000110011010 S
b11001000111101011100001100 j
b11001000111101011100001100 c
b10000000 u
b10000000 t
b1100100011110101110000110000000000000000000000000000000 h
b110010001111010111000011 i
0X
b10000000 ("
b110010001111010111000011 -"
b10010001111010111000011 /"
07"
04"
b110 M
1"
1'
12
#290000
0'
#295000
b1000000010010001111010111000011 =
b1000000010010001111010111000011 S
b10010001111010111000011 g
b10000000 s
1U
b110010001111010111000011 f
b110010001111010111000011 e
b10000000 y
b11001000111101011100001100 d
b11001000111101011100001100 ,"
b10000000 x
b10000000 '"
b0 M
1&
0"
1'
#300000
0'
#305000
0&
1'
02
00
0(
#310000
0'
#315000
1'
#320000
0'
#325000
b1 M
1'
1.
1(
#330000
0'
#335000
b10 M
1$
1'
12
#340000
0'
#345000
b1000000010010001111010111000011 1
b1000000010010001111010111000011 9
b11 M
0$
1'
#350000
0'
#355000
b100 M
b1000000010010001111010111000011 !
b1000000010010001111010111000011 L
1'
#360000
0'
#365000
b0 M
1&
1'
#370000
0'
#375000
0&
1'
02
0.
0(
#380000
0'
#385000
1'
#390000
0'
#395000
b10000000 &"
b10000000 %"
b10000000000000000000000 +"
b0 *"
1@
b111 M
b0 |
b0 W
1^
b1111111 N
b0 V
b10000000 v
b110000000000000000000000 q
b100000000000000000000000 r
b10000000 z
b10000000000000000000000 o
b0 p
1'
b1000000010000000000000000000000 *
b1000000010000000000000000000000 7
b1000000010000000000000000000000 R
b1000000000000000000000000000000 #
b1000000000000000000000000000000 :
b1000000000000000000000000000000 )
b1000000000000000000000000000000 6
b1000000000000000000000000000000 Q
1,
1(
#400000
0'
#405000
b10000001 u
1k
b10100000000000000000000000 j
b101000000000000000000000000 c
b1000000000000000000000000000000000000000000000000000000 m
b1000000000000000000000000000000000000000000000000000000 l
b100000000000000000000000 n
b1100000000000000000000000000000000000000000000000000000 h
b110000000000000000000000 i
1!"
b10000000 )"
11"
b0 ~
b110000000000000000000000 ."
b100000000000000000000000 -"
1a
b10000000000000000000000 0"
0b
b0 /"
0@
b1000 M
1'
#410000
0'
#415000
b1000000101000000000000000000000 =
b1000000101000000000000000000000 S
b1000000000000000000000 g
b10000001 s
0U
b101000000000000000000000 f
b101000000000000000000000 e
b10000001 y
b10100000000000000000000000 d
1?
1""
b10100000000000000000000000 ,"
b10000001 x
b10000001 '"
0!"
1'
#420000
0'
#425000
0?
0""
b1001 M
b1000000101000000000000000000000 !
b1000000101000000000000000000000 L
1'
#430000
0'
#435000
b0 M
1&
1'
#440000
0'
#445000
0&
1'
0,
0(
#450000
0'
#455000
1'
#460000
0'
#465000
b1 _
b1000000000000000000000000 j
b10000000 u
0k
b1000000000000000000000000 c
1Y
b10000001 %"
b10000010 #"
16"
b1000000000000000000000 +"
b1000000000000000000000 *"
b10000001 &"
b10000010 $"
1@
b111 M
b1 |
b1 W
0^
b1111110 N
b10000001 v
b101000000000000000000000 q
b1 V
b10000010 w
b101000000000000000000000 r
1[
b10000001 z
b1000000000000000000000 o
b10000010 {
b1000000000000000000000 p
1'
b11000000101000000000000000000000 *
b11000000101000000000000000000000 7
b11000000101000000000000000000000 R
b1000001001000000000000000000000 #
b1000001001000000000000000000000 :
b1000001001000000000000000000000 )
b1000001001000000000000000000000 6
b1000001001000000000000000000000 Q
1,
1(
#470000
0'
#475000
b10111111100000000000000000000000 =
b10111111100000000000000000000000 S
b0 g
b1111111 s
b1010000000000000000000000 j
b1111111 y
b100000000000000000000000 f
b100000000000000000000000 e
1Z
0Y
b1010000000000000000000000 c
1X
b10000000000000000000000000 d
b10000010 u
b10000010 t
b1010000000000000000000000000000000000000000000000000000 h
b101000000000000000000000 i
b1010000000000000000000000000000000000000000000000000000 l
b101000000000000000000000 n
b1000000000000000000000 0"
1b
b1000000000000000000000 /"
b1000000000000000000000000 ,"
18"
14"
b10000000 '"
b1111111 x
b1 2"
1!"
b10000001 )"
b10000010 ("
01"
b101000000000000000000000000000000000000000000000000000 m
b1 ~
b101000000000000000000000 ."
b101000000000000000000000 -"
0@
b1000 M
1'
#480000
0'
#485000
b1000000101000000000000000000000 =
b1000000101000000000000000000000 S
b1000000000000000000000 g
b10000001 s
b101000000000000000000000 f
b101000000000000000000000 e
b10000001 y
b10100000000000000000000000 d
0X
0!"
1?
1""
b1010000000000000000000000 ,"
04"
b10000001 x
b10000010 '"
1'
#490000
0'
#495000
0?
0""
b1001 M
1'
#500000
0'
#505000
b0 M
1&
1'
#510000
0'
#515000
0&
1'
0,
0(
#520000
0'
#525000
1'
#530000
0'
#535000
b0 _
b11110000000000000000000000 j
b11110000000000000000000000 c
0Z
b1111101 &"
b1111110 $"
b1111101 %"
b1111110 #"
06"
b0 +"
b0 *"
1@
b111 M
b10000010 N
b1111101 v
b100000000000000000000000 q
b1 V
b1111110 w
b100000000000000000000000 r
0[
b1111101 z
b0 o
b1111110 {
b0 p
1'
b111110100000000000000000000000 *
b111110100000000000000000000000 7
b111110100000000000000000000000 R
b111111000000000000000000000000 #
b111111000000000000000000000000 :
b111111000000000000000000000000 )
b111111000000000000000000000000 6
b111111000000000000000000000000 Q
1,
1(
#540000
0'
#545000
b1000001011100000000000000000000 =
b1000001011100000000000000000000 S
b11100000000000000000000 g
b11000000000000000000000000 j
b10000010 s
b11000000000000000000000000 c
b10000010 y
b111100000000000000000000 f
b111100000000000000000000 e
b1111110 u
b1111110 t
b100000000000000000000000000000000000000000000000000000 m
b1000000000000000000000000000000000000000000000000000000 l
b100000000000000000000000 n
b1000000000000000000000000000000000000000000000000000000 h
b100000000000000000000000 i
b11110000000000000000000000 d
1!"
b1111101 )"
b1111110 ("
b100000000000000000000000 ."
b100000000000000000000000 -"
0a
b0 0"
0b
b0 /"
b11110000000000000000000000 ,"
08"
b10000010 x
b0 2"
0@
b1000 M
1'
#550000
0'
#555000
b111111010000000000000000000000 =
b111111010000000000000000000000 S
b10000000000000000000000 g
b1111110 s
b110000000000000000000000 f
b110000000000000000000000 e
b1111110 y
b11000000000000000000000000 d
1?
1""
b11000000000000000000000000 ,"
b1111110 x
b1111110 '"
0!"
1'
#560000
0'
#565000
0?
0""
b1001 M
b111111010000000000000000000000 !
b111111010000000000000000000000 L
1'
#570000
0'
#575000
b0 M
1&
1'
#580000
0'
#585000
0&
1'
0,
0(
#590000
0'
#595000
1'
#600000
0'
#605000
1Z
1Y
b10000000 %"
b1111111 #"
16"
15"
b1000000000000000000000 +"
b10000000000000000000000 *"
b10000000 &"
b1111111 $"
1@
b111 M
0}
b1 |
b1 W
1^
b1111111 N
b10000000 v
b101000000000000000000000 q
b111111111 V
b1111111 w
b110000000000000000000000 r
1[
b10000000 z
b1000000000000000000000 o
1\
b1111111 {
b10000000000000000000000 p
1'
b11000000001000000000000000000000 *
b11000000001000000000000000000000 7
b11000000001000000000000000000000 R
b10111111110000000000000000000000 #
b10111111110000000000000000000000 :
b10111111110000000000000000000000 )
b10111111110000000000000000000000 6
b10111111110000000000000000000000 Q
1,
1(
#610000
0'
#615000
b10111111010000000000000000000000 =
b10111111010000000000000000000000 S
b0 _
1k
b10000000000000000000000000 j
b100000000000000000000000000 c
1X
b10000001 u
b10000000 t
b110000000000000000000000000000000000000000000000000000 m
b1100000000000000000000000000000000000000000000000000000 l
b110000000000000000000000 n
b1010000000000000000000000000000000000000000000000000000 h
b101000000000000000000000 i
1a
b1000000000000000000000 0"
1b
b10000000000000000000000 /"
18"
17"
14"
1!"
b10000000 )"
b1111111 ("
11"
b101000000000000000000000 ."
b110000000000000000000000 -"
0@
b1000 M
1'
#620000
0'
#625000
b11000000100000000000000000000000 =
b11000000100000000000000000000000 S
b0 g
b10000001 s
b100000000000000000000000 f
b100000000000000000000000 e
b10000001 y
b10000000000000000000000000 d
0!"
1?
1""
b10000000000000000000000000 ,"
b10000001 x
b10000001 '"
1'
#630000
0'
#635000
0?
0""
b1001 M
b11000000100000000000000000000000 !
b11000000100000000000000000000000 L
1'
#640000
0'
#645000
b0 M
1&
1'
#650000
0'
#655000
0&
1'
0,
0(
#660000
0'
#665000
1'
#670000
0'
#675000
0Y
0Z
b10000001 &"
b0 $"
b10000001 %"
b0 #"
06"
05"
b0 +"
b0 *"
1@
b111 M
b11000 |
b10000000 W
b1111110 N
b10000001 v
b100000000000000000000000 q
b110000000 V
b1 w
b0 r
0[
b10000001 z
b0 o
0\
b0 {
b0 p
1'
b1000000100000000000000000000000 *
b1000000100000000000000000000000 7
b1000000100000000000000000000000 R
b0 #
b0 :
b0 )
b0 6
b0 Q
1,
1(
#680000
0'
#685000
b1000000100000000000000000000000 =
b1000000100000000000000000000000 S
0k
b10000000000000000000000000 c
b10000001 u
b10000001 t
b1000000000000000000000000000000000000000000000000000000 h
b100000000000000000000000 i
b0 l
b0 n
0X
1!"
b10000001 )"
b1 ("
b0 m
b11000 ~
b100000000000000000000000 ."
b0 -"
0a
b0 0"
0b
b0 /"
08"
07"
04"
0@
b1000 M
1'
#690000
0'
#695000
1?
1""
0!"
1'
#700000
0'
#705000
0?
0""
b1001 M
b1000000100000000000000000000000 !
b1000000100000000000000000000000 L
1'
#710000
0'
#715000
b0 M
1&
1'
#720000
0'
#725000
0&
1'
0,
0(
#730000
0'
#735000
1'
#740000
0'
#745000
b1111111100000000000000000000000 =
b1111111100000000000000000000000 S
b10000101 %"
b11111111 #"
b10010000000000000000000 +"
b10000101 &"
b11111111 $"
1@
b111 M
1}
b1111010 W
b1111010 N
0^
b10000101 v
b110010000000000000000000 q
b100000000000000000000000 r
b1111010 V
b11111111 w
b10000101 z
b10010000000000000000000 o
b11111111 {
1'
b1000010110010000000000000000000 *
b1000010110010000000000000000000 7
b1000010110010000000000000000000 R
b1111111100000000000000000000000 #
b1111111100000000000000000000000 :
b1111111100000000000000000000000 )
b1111111100000000000000000000000 6
b1111111100000000000000000000000 Q
1,
1(
#750000
0'
#755000
1]
1T
b10000000000000000000000011 j
b10000000000000000000000011 c
b11111111 u
b11111111 t
b1000000000000000000000000000000000000000000000000000000 h
b100000000000000000000000 i
b1100100000000000000000000000000 m
b1100100000000000000000000000000000000000000000000000000 l
b110010000000000000000000 n
1a
b10010000000000000000000 0"
1!"
b10000101 )"
b11111111 ("
01"
b110010000000000000000000 ."
b100000000000000000000000 -"
0@
b1000 M
1'
#760000
0'
#765000
b1 g
b100000000000000000000001 f
1O
b11111111 s
1`
b11111111 y
b10000000000000000000000011 d
1P
0!"
1?
1""
b10000000000000000000000011 ,"
b11111111 x
b11111111 '"
13"
1'
#770000
0'
#775000
0?
0""
b1001 M
b1111111100000000000000000000000 !
b1111111100000000000000000000000 L
1'
#780000
0'
#785000
b0 M
1&
1'
#790000
0'
#795000
0&
1'
0,
0(
#800000
0'
#805000
1'
#810000
0'
#815000
b1111111 &"
b1111111 %"
b0 +"
b10000000000000000000000 *"
1@
b111 M
b10000000 W
b10000000 N
b10000000 V
b1111111 v
b100000000000000000000000 q
b110000000000000000000000 r
b1111111 z
b0 o
b10000000000000000000000 p
1'
b111111100000000000000000000000 *
b111111100000000000000000000000 7
b111111100000000000000000000000 R
b1111111110000000000000000000000 #
b1111111110000000000000000000000 :
b1111111110000000000000000000000 )
b1111111110000000000000000000000 6
b1111111110000000000000000000000 Q
1,
1(
#820000
0'
#825000
0]
b11000000000000000000000010 j
0T
b11000000000000000000000010 c
b1000000000000000000000000000000 m
b1000000000000000000000000000000000000000000000000000000 l
b100000000000000000000000 n
b1100000000000000000000000000000000000000000000000000000 h
b110000000000000000000000 i
b1111111110000000000000000000000 =
b1111111110000000000000000000000 S
1!"
b1111111 )"
b100000000000000000000000 ."
b110000000000000000000000 -"
0a
b0 0"
1b
b10000000000000000000000 /"
0@
b1000 M
1'
#830000
0'
#835000
0O
b10000000000000000000000 g
0P
b110000000000000000000000 f
b110000000000000000000000 e
b11000000000000000000000010 d
1?
1""
b11000000000000000000000010 ,"
03"
0!"
1'
#840000
0'
#845000
0?
0""
b1001 M
b1111111110000000000000000000000 !
b1111111110000000000000000000000 L
1'
#850000
0'
#855000
b0 M
1&
1'
#860000
0'
#865000
0&
1'
0,
0(
