RTL/FPU_fin/build/fpu_comprehensive_tb.vcd
$date
	Fri Sep  5 14:04:47 2025
$end
$version
	Icarus Verilog
$end
$timescale
	1ps
$end
$scope module fpu_comprehensive_tb $end
$var wire 1 ! reg_wb_enable $end
$var wire 32 " reg_wb_data [31:0] $end
$var wire 5 # reg_wb_addr [4:0] $end
$var wire 1 $ mem_we $end
$var wire 32 % mem_wdata [31:0] $end
$var wire 1 & mem_re $end
$var wire 32 ' mem_addr [31:0] $end
$var wire 1 ( freg_wb_enable $end
$var wire 32 ) freg_wb_data [31:0] $end
$var wire 5 * freg_wb_addr [4:0] $end
$var wire 1 + fpu_busy $end
$var wire 1 , completed $end
$var reg 1 - clk $end
$var reg 1 . enabled $end
$var reg 5 / frd_addr [4:0] $end
$var reg 32 0 freg_rs1 [31:0] $end
$var reg 32 1 freg_rs2 [31:0] $end
$var reg 32 2 imm [31:0] $end
$var reg 1 3 instr_fadd $end
$var reg 1 4 instr_fdiv $end
$var reg 1 5 instr_flw $end
$var reg 1 6 instr_fmul $end
$var reg 1 7 instr_fsw $end
$var reg 32 8 mem_rdata [31:0] $end
$var reg 1 9 mem_ready $end
$var reg 5 : rd_addr [4:0] $end
$var reg 32 ; reg_rs1 [31:0] $end
$var reg 32 < reg_rs2 [31:0] $end
$var reg 1 = rst_n $end
$var integer 32 > fail_count [31:0] $end
$var integer 32 ? pass_count [31:0] $end
$scope function float_to_hex $end
$var real 1 @ f $end
$upscope $end
$scope module uut $end
$var wire 1 - clk $end
$var wire 1 . enabled $end
$var wire 5 A frd_addr [4:0] $end
$var wire 32 B freg_rs1 [31:0] $end
$var wire 32 C freg_rs2 [31:0] $end
$var wire 5 D freg_wb_addr [4:0] $end
$var wire 32 E freg_wb_data [31:0] $end
$var wire 1 ( freg_wb_enable $end
$var wire 32 F imm [31:0] $end
$var wire 1 3 instr_fadd $end
$var wire 1 4 instr_fdiv $end
$var wire 1 5 instr_flw $end
$var wire 1 6 instr_fmul $end
$var wire 1 7 instr_fsw $end
$var wire 32 G mem_rdata [31:0] $end
$var wire 1 9 mem_ready $end
$var wire 5 H rd_addr [4:0] $end
$var wire 32 I reg_rs1 [31:0] $end
$var wire 32 J reg_rs2 [31:0] $end
$var wire 1 = rst_n $end
$var wire 32 K fadd_result [31:0] $end
$var wire 1 L fadd_ovf $end
$var wire 1 M fadd_enable_out $end
$var parameter 4 N FADD_COMPLETE $end
$var parameter 4 O FADD_START $end
$var parameter 4 P FADD_WAIT $end
$var parameter 4 Q FLW_COMPLETE $end
$var parameter 4 R FLW_MEM_ACCESS $end
$var parameter 4 S FLW_SAMPLE $end
$var parameter 4 T FLW_STABILIZE $end
$var parameter 4 U FLW_WAIT_DATA $end
$var parameter 4 V FLW_WAIT_READY $end
$var parameter 4 W FSW_COMPLETE $end
$var parameter 4 X FSW_MEM_ACCESS $end
$var parameter 4 Y FSW_WAIT_READY $end
$var parameter 4 Z NONE $end
$var reg 1 , completed $end
$var reg 1 [ fadd_start $end
$var reg 1 + fpu_busy $end
$var reg 32 \ mem_addr [31:0] $end
$var reg 1 & mem_re $end
$var reg 32 ] mem_wdata [31:0] $end
$var reg 1 $ mem_we $end
$var reg 4 ^ next_state [3:0] $end
$var reg 5 _ reg_wb_addr [4:0] $end
$var reg 32 ` reg_wb_data [31:0] $end
$var reg 1 ! reg_wb_enable $end
$var reg 4 a state [3:0] $end
$var reg 5 b target_frd [4:0] $end
$var reg 32 c temp_freg_rs1 [31:0] $end
$var reg 32 d temp_freg_rs2 [31:0] $end
$var reg 5 e temp_freg_wb_addr [4:0] $end
$var reg 32 f temp_freg_wb_data [31:0] $end
$var reg 1 g temp_freg_wb_enable $end
$var reg 32 h temp_mem_addr [31:0] $end
$var reg 32 i temp_mem_wdata [31:0] $end
$scope module uut_fadd $end
$var wire 1 - clk $end
$var wire 1 [ enable_in $end
$var wire 1 M enable_out $end
$var wire 8 j exp_norm_x2_i [7:0] $end
$var wire 1 L ovf $end
$var wire 1 k round_up $end
$var wire 1 = rst_n $end
$var wire 1 l sticky_bit_final $end
$var wire 32 m x1 [31:0] $end
$var wire 32 n x2 [31:0] $end
$var wire 32 o y [31:0] $end
$var wire 1 p tstck $end
$var wire 1 q tie_even $end
$var wire 9 r te_diff [8:0] $end
$var wire 8 s tde [7:0] $end
$var wire 1 t symbol_y $end
$var wire 1 u symbol_signi $end
$var wire 1 v symbol_insigni $end
$var wire 1 w symbol_init_x2 $end
$var wire 1 x symbol_init_x1 $end
$var wire 1 y stck $end
$var wire 1 z sel $end
$var wire 5 { search_leading_zeros [4:0] $end
$var wire 1 | round_bit $end
$var wire 1 } nzm2 $end
$var wire 1 ~ nzm1 $end
$var wire 27 !" man_y_sum [26:0] $end
$var wire 27 "" man_y_norm [26:0] $end
$var wire 25 #" man_y_finorm_unrounded [24:0] $end
$var wire 25 $" man_y_finorm [24:0] $end
$var wire 23 %" man_y [22:0] $end
$var wire 56 &" man_signi_ext [55:0] $end
$var wire 25 '" man_signi [24:0] $end
$var wire 27 (" man_pre_norm [26:0] $end
$var wire 1 )" man_overflow $end
$var wire 56 *" man_insigni_ext [55:0] $end
$var wire 56 +" man_insigni_align [55:0] $end
$var wire 25 ," man_insigni [24:0] $end
$var wire 23 -" man_init_x2 [22:0] $end
$var wire 23 ." man_init_x1 [22:0] $end
$var wire 25 /" man_ext_x2 [24:0] $end
$var wire 25 0" man_ext_x1 [24:0] $end
$var wire 8 1" exp_y [7:0] $end
$var wire 8 2" exp_signi [7:0] $end
$var wire 8 3" exp_pre_norm [7:0] $end
$var wire 8 4" exp_norm_x2 [7:0] $end
$var wire 8 5" exp_norm_x1 [7:0] $end
$var wire 9 6" exp_norm_temp [8:0] $end
$var wire 8 7" exp_norm [7:0] $end
$var wire 8 8" exp_init_x2 [7:0] $end
$var wire 8 9" exp_init_x1 [7:0] $end
$var wire 5 :" de [4:0] $end
$var wire 1 ;" ce $end
$var reg 5 <" de_st1 [4:0] $end
$var reg 1 =" enable_in_st1 $end
$var reg 1 >" enable_in_st2 $end
$var reg 1 ?" enable_out_reg $end
$var reg 8 @" exp_init_x1_st1 [7:0] $end
$var reg 8 A" exp_init_x1_st2 [7:0] $end
$var reg 8 B" exp_init_x2_st1 [7:0] $end
$var reg 8 C" exp_init_x2_st2 [7:0] $end
$var reg 8 D" exp_pre_norm_st2 [7:0] $end
$var reg 8 E" exp_st1_x1 [7:0] $end
$var reg 8 F" exp_st1_x2 [7:0] $end
$var reg 23 G" man_init_x1_st1 [22:0] $end
$var reg 23 H" man_init_x2_st1 [22:0] $end
$var reg 27 I" man_pre_norm_st2 [26:0] $end
$var reg 25 J" man_st1_x1 [24:0] $end
$var reg 25 K" man_st1_x2 [24:0] $end
$var reg 23 L" man_st2_x1 [22:0] $end
$var reg 23 M" man_st2_x2 [22:0] $end
$var reg 1 N" sel_st1 $end
$var reg 5 O" slz_st2 [4:0] $end
$var reg 1 P" stck_st2 $end
$var reg 1 Q" symbol_signi_st2 $end
$var reg 1 R" symbol_st1_x1 $end
$var reg 1 S" symbol_st1_x2 $end
$var reg 1 T" symbol_st2_x1 $end
$var reg 1 U" symbol_st2_x2 $end
$upscope $end
$upscope $end
$scope task clear_instructions $end
$upscope $end
$scope task reset_system $end
$upscope $end
$scope task test_fadd $end
$var reg 32 V" expected_result [31:0] $end
$var reg 32 W" op1 [31:0] $end
$var reg 32 X" op2 [31:0] $end
$var reg 5 Y" target_reg [4:0] $end
$var reg 128 Z" test_name [127:0] $end
$upscope $end
$scope task test_flw $end
$var reg 32 [" base_addr [31:0] $end
$var reg 32 \" expected_data [31:0] $end
$var reg 32 ]" offset [31:0] $end
$var reg 5 ^" target_reg [4:0] $end
$var reg 128 _" test_name [127:0] $end
$upscope $end
$scope task test_fsw $end
$var reg 32 `" base_addr [31:0] $end
$var reg 32 a" check_addr [31:0] $end
$var reg 32 b" offset [31:0] $end
$var reg 32 c" store_data [31:0] $end
$var reg 128 d" test_name [127:0] $end
$upscope $end
$scope task wait_cycles $end
$var integer 32 e" cycles [31:0] $end
$var integer 32 f" i [31:0] $end
$upscope $end
$upscope $end
$enddefinitions $end
$comment Show the parameter values. $end
$dumpall
b0 Z
b1000 Y
b111 X
b1001 W
b10 V
b11 U
b100 T
b101 S
b1 R
b110 Q
b1011 P
b1010 O
b1100 N
$end
#0
$dumpvars
bx f"
bx e"
bx d"
bx c"
bx b"
bx a"
bx `"
bx _"
bx ^"
bx ]"
bx \"
bx ["
bx Z"
bx Y"
bx X"
bx W"
bx V"
xU"
xT"
xS"
xR"
xQ"
xP"
bx O"
xN"
bx M"
bx L"
bx K"
bx J"
bx I"
bx H"
bx G"
bx F"
bx E"
bx D"
bx C"
bx B"
bx A"
bx @"
0?"
x>"
x="
bx <"
1;"
b0 :"
b0 9"
b0 8"
bx 7"
bx 6"
b1 5"
b1 4"
bx 3"
bx 2"
bx 1"
b0 0"
b0 /"
b0 ."
b0 -"
bx ,"
bx +"
bx0000000000000000000000000000000 *"
x)"
bx ("
bx '"
bx0000000000000000000000000000000 &"
bx %"
bx $"
bx #"
bx ""
bx !"
x~
x}
x|
bx {
0z
xy
0x
0w
xv
xu
xt
b0 s
b0 r
xq
xp
bx o
b0 n
b0 m
xl
xk
b11111110 j
b0 i
b0 h
0g
b0 f
b0 e
b0 d
b0 c
b0 b
b0 a
b0 `
b0 _
b0 ^
b0 ]
b0 \
0[
0M
xL
bx K
bx J
bx I
bx H
b0 G
bx F
b0 E
b0 D
bx C
bx B
bx A
r0 @
b0 ?
b0 >
0=
bx <
bx ;
bx :
x9
b0 8
07
06
05
04
03
bx 2
bx 1
bx 0
bx /
0.
0-
0,
0+
b0 *
b0 )
0(
b0 '
0&
b0 %
0$
b0 #
b0 "
0!
$end
#5
b11011 {
b0 K
b0 o
b0 %"
0L
0y
b0 $"
0k
b0 3"
0)"
b0 ("
b0 1"
0l
b0 !"
0t
b0 7"
0|
0q
b0 #"
b0 2"
0p
0u
0v
b0 &"
b0 '"
b0 *"
b0 ,"
b0 ""
0="
b0 F"
b0 E"
b0 B"
b0 @"
0N"
b0 +"
b0 <"
0S"
0R"
b0 K"
b0 J"
b0 H"
b0 G"
0>"
0}
b0 M"
0~
b0 L"
b0 C"
b0 A"
b0 I"
0U"
0T"
0Q"
b0 6"
b0 D"
b0 O"
0P"
09
1-
#10
0-
#15
1-
#20
0-
1=
#25
b0 K
b0 o
b0 1"
b0 7"
b1 3"
b1 2"
b1 F"
b1 E"
b111100101 6"
b11011 O"
1-
#30
b1 ^
0-
15
1.
b1 /
b1 A
b0 2
b0 F
b1000000000000 ;
b1000000000000 I
b100110001101111011000010110010000100000001100010010111000110000 _"
b1 ^"
b111111100000000000000000000000 \"
b0 ]"
b1000000000000 ["
#35
1+
b1 a
b1 b
b1000000000000 h
b111100110 6"
b1 D"
b10 ^
0.
05
1-
#40
0-
#45
b1000000000000 '
b1000000000000 \
1&
b10 a
1-
#50
0-
#55
b11 ^
0&
19
b111111100000000000000000000000 8
b111111100000000000000000000000 G
1-
#60
0-
#65
b100 ^
b11 a
09
1-
#70
0-
#75
b101 ^
b100 a
1-
#80
0-
#85
b110 ^
b101 a
1-
#90
0-
#95
b0 ^
b110 a
b111111100000000000000000000000 )
b111111100000000000000000000000 E
b111111100000000000000000000000 f
b1 *
b1 D
b1 e
1-
#100
0-
#105
0+
1,
1(
1g
b0 a
1-
#110
0-
#115
0(
0g
0,
b1 ?
1-
#120
0-
#125
b0 f"
b101 e"
1-
#130
0-
#135
b1 f"
1-
#140
0-
#145
b10 f"
1-
#150
0-
#155
b11 f"
1-
#160
0-
#165
b100 f"
1-
#170
0-
#175
b1 ^
15
1.
b10 /
b10 A
b100 2
b100 F
b100110001101111011000010110010000100000001100100010111000110000 _"
b10 ^"
b1000000000000000000000000000000 \"
b100 ]"
b101 f"
1-
#180
0-
#185
1+
b10 b
b1000000000100 h
b1 a
b10 ^
0.
05
1-
#190
0-
#195
b10 a
b1000000000100 '
b1000000000100 \
1&
1-
#200
0-
#205
b11 ^
0&
19
b1000000000000000000000000000000 8
b1000000000000000000000000000000 G
1-
#210
0-
#215
b100 ^
b11 a
09
1-
#220
0-
#225
b101 ^
b100 a
1-
#230
0-
#235
b110 ^
b101 a
1-
#240
0-
#245
b0 ^
b1000000000000000000000000000000 )
b1000000000000000000000000000000 E
b1000000000000000000000000000000 f
b10 *
b10 D
b10 e
b110 a
1-
#250
0-
#255
0+
b0 a
1,
1(
1g
1-
#260
0-
#265
0(
0g
0,
b10 ?
1-
#270
0-
#275
b0 f"
1-
#280
0-
#285
b1 f"
1-
#290
0-
#295
b10 f"
1-
#300
0-
#305
b11 f"
1-
#310
0-
#315
b100 f"
1-
#320
0-
#325
b1 ^
15
1.
b11 /
b11 A
b1000 2
b1000 F
b100110001101111011000010110010000100000001100110010111000110000 _"
b11 ^"
b1000000010000000000000000000000 \"
b1000 ]"
b101 f"
1-
#330
0-
#335
1+
b1 a
b11 b
b1000000001000 h
b10 ^
0.
05
1-
#340
0-
#345
b1000000001000 '
b1000000001000 \
1&
b10 a
1-
#350
0-
#355
b11 ^
0&
19
b1000000010000000000000000000000 8
b1000000010000000000000000000000 G
1-
#360
0-
#365
b100 ^
b11 a
09
1-
#370
0-
#375
b101 ^
b100 a
1-
#380
0-
#385
b110 ^
b101 a
1-
#390
0-
#395
b0 ^
b110 a
b1000000010000000000000000000000 )
b1000000010000000000000000000000 E
b1000000010000000000000000000000 f
b11 *
b11 D
b11 e
1-
#400
0-
#405
0+
1,
1(
1g
b0 a
1-
#410
0-
#415
0(
0g
0,
b11 ?
1-
#420
0-
#425
b0 f"
1-
#430
0-
#435
b1 f"
1-
#440
0-
#445
b10 f"
1-
#450
0-
#455
b11 f"
1-
#460
0-
#465
b100 f"
1-
#470
0-
#475
b1 ^
15
1.
b100 /
b100 A
b0 2
b0 F
b1000000010100 ;
b1000000010100 I
b100110001101111011000010110010000100000001100000010111000110101 _"
b100 ^"
b111111000000000000000000000000 \"
b0 ]"
b1000000010100 ["
b101 f"
1-
#480
0-
#485
1+
b100 b
b1000000010100 h
b1 a
b10 ^
0.
05
1-
#490
0-
#495
b10 a
b1000000010100 '
b1000000010100 \
1&
1-
#500
0-
#505
b11 ^
0&
19
b111111000000000000000000000000 8
b111111000000000000000000000000 G
1-
#510
0-
#515
b100 ^
b11 a
09
1-
#520
0-
#525
b101 ^
b100 a
1-
#530
0-
#535
b110 ^
b101 a
1-
#540
0-
#545
b0 ^
b111111000000000000000000000000 )
b111111000000000000000000000000 E
b111111000000000000000000000000 f
b100 *
b100 D
b100 e
b110 a
1-
#550
0-
#555
0+
b0 a
1,
1(
1g
1-
#560
0-
#565
0(
0g
0,
b100 ?
1-
#570
0-
#575
b0 f"
1-
#580
0-
#585
b1 f"
1-
#590
0-
#595
b10 f"
1-
#600
0-
#605
b11 f"
1-
#610
0-
#615
b100 f"
1-
#620
0-
#625
b1 ^
15
1.
b101 /
b101 A
b1000000011000 ;
b1000000011000 I
b10011000110111101100001011001000010000000110000001011100011001000110101 _"
b101 ^"
b111110100000000000000000000000 \"
b1000000011000 ["
b101 f"
1-
#630
0-
#635
1+
b1 a
b101 b
b1000000011000 h
b10 ^
0.
05
1-
#640
0-
#645
b1000000011000 '
b1000000011000 \
1&
b10 a
1-
#650
0-
#655
b11 ^
0&
19
b111110100000000000000000000000 8
b111110100000000000000000000000 G
1-
#660
0-
#665
b100 ^
b11 a
09
1-
#670
0-
#675
b101 ^
b100 a
1-
#680
0-
#685
b110 ^
b101 a
1-
#690
0-
#695
b0 ^
b110 a
b111110100000000000000000000000 )
b111110100000000000000000000000 E
b111110100000000000000000000000 f
b101 *
b101 D
b101 e
1-
#700
0-
#705
0+
1,
1(
1g
b0 a
1-
#710
0-
#715
0(
0g
0,
b101 ?
1-
#720
0-
#725
b0 f"
1-
#730
0-
#735
b1 f"
1-
#740
0-
#745
b10 f"
1-
#750
0-
#755
b11 f"
1-
#760
0-
#765
b100 f"
1-
#770
0-
#775
b1 ^
15
1.
b110 /
b110 A
b1000000100000 ;
b1000000100000 I
b10011000110111101100001011001000010000000101101001100010010111000110000 _"
b110 ^"
b10111111100000000000000000000000 \"
b1000000100000 ["
b101 f"
1-
#780
0-
#785
1+
b110 b
b1000000100000 h
b1 a
b10 ^
0.
05
1-
#790
0-
#795
b10 a
b1000000100000 '
b1000000100000 \
1&
1-
#800
0-
#805
b11 ^
0&
19
b10111111100000000000000000000000 8
b10111111100000000000000000000000 G
1-
#810
0-
#815
b100 ^
b11 a
09
1-
#820
0-
#825
b101 ^
b100 a
1-
#830
0-
#835
b110 ^
b101 a
1-
#840
0-
#845
b0 ^
b10111111100000000000000000000000 )
b10111111100000000000000000000000 E
b10111111100000000000000000000000 f
b110 *
b110 D
b110 e
b110 a
1-
#850
0-
#855
0+
b0 a
1,
1(
1g
1-
#860
0-
#865
0(
0g
0,
b110 ?
1-
#870
0-
#875
b0 f"
1-
#880
0-
#885
b1 f"
1-
#890
0-
#895
b10 f"
1-
#900
0-
#905
b11 f"
1-
#910
0-
#915
b100 f"
1-
#920
0-
#925
b1 ^
15
1.
b111 /
b111 A
b1000000100100 ;
b1000000100100 I
b10011000110111101100001011001000010000000101101001100100010111000110000 _"
b111 ^"
b11000000000000000000000000000000 \"
b1000000100100 ["
b101 f"
1-
#930
0-
#935
1+
b1 a
b111 b
b1000000100100 h
b10 ^
0.
05
1-
#940
0-
#945
b1000000100100 '
b1000000100100 \
1&
b10 a
1-
#950
0-
#955
b11 ^
0&
19
b11000000000000000000000000000000 8
b11000000000000000000000000000000 G
1-
#960
0-
#965
b100 ^
b11 a
09
1-
#970
0-
#975
b101 ^
b100 a
1-
#980
0-
#985
b110 ^
b101 a
1-
#990
0-
#995
b0 ^
b110 a
b11000000000000000000000000000000 )
b11000000000000000000000000000000 E
b11000000000000000000000000000000 f
b111 *
b111 D
b111 e
1-
#1000
0-
#1005
0+
1,
1(
1g
b0 a
1-
#1010
0-
#1015
0(
0g
0,
b111 ?
1-
#1020
0-
#1025
b0 f"
1-
#1030
0-
#1035
b1 f"
1-
#1040
0-
#1045
b10 f"
1-
#1050
0-
#1055
b11 f"
1-
#1060
0-
#1065
b100 f"
1-
#1070
0-
#1075
b1 ^
15
1.
b1000 /
b1000 A
b1000000110000 ;
b1000000110000 I
b10011000110111101100001011001000010000000101011001100000010111000110000 _"
b1000 ^"
b0 \"
b1000000110000 ["
b101 f"
1-
#1080
0-
#1085
1+
b1000 b
b1000000110000 h
b1 a
b10 ^
0.
05
1-
#1090
0-
#1095
b10 a
b1000000110000 '
b1000000110000 \
1&
1-
#1100
0-
#1105
b11 ^
0&
19
b0 8
b0 G
1-
#1110
0-
#1115
b100 ^
b11 a
09
1-
#1120
0-
#1125
b101 ^
b100 a
1-
#1130
0-
#1135
b110 ^
b101 a
1-
#1140
0-
#1145
b0 ^
b0 )
b0 E
b0 f
b1000 *
b1000 D
b1000 e
b110 a
1-
#1150
0-
#1155
0+
b0 a
1,
1(
1g
1-
#1160
0-
#1165
0(
0g
0,
b1000 ?
1-
#1170
0-
#1175
b0 f"
1-
#1180
0-
#1185
b1 f"
1-
#1190
0-
#1195
b10 f"
1-
#1200
0-
#1205
b11 f"
1-
#1210
0-
#1215
b100 f"
1-
#1220
0-
#1225
b1 ^
15
1.
b1001 /
b1001 A
b1000000110100 ;
b1000000110100 I
b10011000110111101100001011001000010000000101101001100000010111000110000 _"
b1001 ^"
b10000000000000000000000000000000 \"
b1000000110100 ["
b101 f"
1-
#1230
0-
#1235
1+
b1 a
b1001 b
b1000000110100 h
b10 ^
0.
05
1-
#1240
0-
#1245
b1000000110100 '
b1000000110100 \
1&
b10 a
1-
#1250
0-
#1255
b11 ^
0&
19
b10000000000000000000000000000000 8
b10000000000000000000000000000000 G
1-
#1260
0-
#1265
b100 ^
b11 a
09
1-
#1270
0-
#1275
b101 ^
b100 a
1-
#1280
0-
#1285
b110 ^
b101 a
1-
#1290
0-
#1295
b0 ^
b110 a
b10000000000000000000000000000000 )
b10000000000000000000000000000000 E
b10000000000000000000000000000000 f
b1001 *
b1001 D
b1001 e
1-
#1300
0-
#1305
0+
1,
1(
1g
b0 a
1-
#1310
0-
#1315
0(
0g
0,
b1001 ?
1-
#1320
0-
#1325
b0 f"
1-
#1330
0-
#1335
b1 f"
1-
#1340
0-
#1345
b10 f"
1-
#1350
0-
#1355
b11 f"
1-
#1360
0-
#1365
b100 f"
1-
#1370
0-
#1375
b1 ^
15
1.
b1010 /
b1010 A
b1000000111000 ;
b1000000111000 I
b100110001101111011000010110010000100000001010110100100101101110011001100110100101101110011010010111010001111001 _"
b1010 ^"
b1111111100000000000000000000000 \"
b1000000111000 ["
b101 f"
1-
#1380
0-
#1385
1+
b1010 b
b1000000111000 h
b1 a
b10 ^
0.
05
1-
#1390
0-
#1395
b10 a
b1000000111000 '
b1000000111000 \
1&
1-
#1400
0-
#1405
b11 ^
0&
19
b1111111100000000000000000000000 8
b1111111100000000000000000000000 G
1-
#1410
0-
#1415
b100 ^
b11 a
09
1-
#1420
0-
#1425
b101 ^
b100 a
1-
#1430
0-
#1435
b110 ^
b101 a
1-
#1440
0-
#1445
b0 ^
b1111111100000000000000000000000 )
b1111111100000000000000000000000 E
b1111111100000000000000000000000 f
b1010 *
b1010 D
b1010 e
b110 a
1-
#1450
0-
#1455
0+
b0 a
1,
1(
1g
1-
#1460
0-
#1465
0(
0g
0,
b1010 ?
1-
#1470
0-
#1475
b0 f"
1-
#1480
0-
#1485
b1 f"
1-
#1490
0-
#1495
b10 f"
1-
#1500
0-
#1505
b11 f"
1-
#1510
0-
#1515
b100 f"
1-
#1520
0-
#1525
b1 ^
15
1.
b1011 /
b1011 A
b1000000111100 ;
b1000000111100 I
b100110001101111011000010110010000100000001011010100100101101110011001100110100101101110011010010111010001111001 _"
b1011 ^"
b11111111100000000000000000000000 \"
b1000000111100 ["
b101 f"
1-
#1530
0-
#1535
1+
b1 a
b1011 b
b1000000111100 h
b10 ^
0.
05
1-
#1540
0-
#1545
b1000000111100 '
b1000000111100 \
1&
b10 a
1-
#1550
0-
#1555
b11 ^
0&
19
b11111111100000000000000000000000 8
b11111111100000000000000000000000 G
1-
#1560
0-
#1565
b100 ^
b11 a
09
1-
#1570
0-
#1575
b101 ^
b100 a
1-
#1580
0-
#1585
b110 ^
b101 a
1-
#1590
0-
#1595
b0 ^
b110 a
b11111111100000000000000000000000 )
b11111111100000000000000000000000 E
b11111111100000000000000000000000 f
b1011 *
b1011 D
b1011 e
1-
#1600
0-
#1605
0+
1,
1(
1g
b0 a
1-
#1610
0-
#1615
0(
0g
0,
b1011 ?
1-
#1620
0-
#1625
b0 f"
1-
#1630
0-
#1635
b1 f"
1-
#1640
0-
#1645
b10 f"
1-
#1650
0-
#1655
b11 f"
1-
#1660
0-
#1665
b100 f"
1-
#1670
0-
#1675
b1 ^
15
1.
b1100 /
b1100 A
b1000001000000 ;
b1000001000000 I
b100110001101111011000010110010000100000010011100110000101001110 _"
b1100 ^"
b1111111110000000000000000000000 \"
b1000001000000 ["
b101 f"
1-
#1680
0-
#1685
1+
b1100 b
b1000001000000 h
b1 a
b10 ^
0.
05
1-
#1690
0-
#1695
b10 a
b1000001000000 '
b1000001000000 \
1&
1-
#1700
0-
#1705
b11 ^
0&
19
b1111111110000000000000000000000 8
b1111111110000000000000000000000 G
1-
#1710
0-
#1715
b100 ^
b11 a
09
1-
#1720
0-
#1725
b101 ^
b100 a
1-
#1730
0-
#1735
b110 ^
b101 a
1-
#1740
0-
#1745
b0 ^
b1111111110000000000000000000000 )
b1111111110000000000000000000000 E
b1111111110000000000000000000000 f
b1100 *
b1100 D
b1100 e
b110 a
1-
#1750
0-
#1755
0+
b0 a
1,
1(
1g
1-
#1760
0-
#1765
0(
0g
0,
b1100 ?
1-
#1770
0-
#1775
b0 f"
1-
#1780
0-
#1785
b1 f"
1-
#1790
0-
#1795
b10 f"
1-
#1800
0-
#1805
b11 f"
1-
#1810
0-
#1815
b100 f"
1-
#1820
0-
#1825
b1 ^
15
1.
b1101 /
b1101 A
b1000001000100 ;
b1000001000100 I
b1001101011010010110111000100000010001000110010101101110011011110111001001101101011000010110110001101001011110100110010101100100 _"
b1101 ^"
b1 \"
b1000001000100 ["
b101 f"
1-
#1830
0-
#1835
1+
b1 a
b1101 b
b1000001000100 h
b10 ^
0.
05
1-
#1840
0-
#1845
b1000001000100 '
b1000001000100 \
1&
b10 a
1-
#1850
0-
#1855
b11 ^
0&
19
b1 8
b1 G
1-
#1860
0-
#1865
b100 ^
b11 a
09
1-
#1870
0-
#1875
b101 ^
b100 a
1-
#1880
0-
#1885
b110 ^
b101 a
1-
#1890
0-
#1895
b0 ^
b110 a
b1 )
b1 E
b1 f
b1101 *
b1101 D
b1101 e
1-
#1900
0-
#1905
0+
1,
1(
1g
b0 a
1-
#1910
0-
#1915
0(
0g
0,
b1101 ?
1-
#1920
0-
#1925
b0 f"
1-
#1930
0-
#1935
b1 f"
1-
#1940
0-
#1945
b10 f"
1-
#1950
0-
#1955
b11 f"
1-
#1960
0-
#1965
b100 f"
1-
#1970
0-
#1975
b1 ^
15
1.
b1110 /
b1110 A
b1000001001000 ;
b1000001001000 I
b1001101011000010111100000100000010001000110010101101110011011110111001001101101011000010110110001101001011110100110010101100100 _"
b1110 ^"
b11111111111111111111111 \"
b1000001001000 ["
b101 f"
1-
#1980
0-
#1985
1+
b1110 b
b1000001001000 h
b1 a
b10 ^
0.
05
1-
#1990
0-
#1995
b10 a
b1000001001000 '
b1000001001000 \
1&
1-
#2000
0-
#2005
b11 ^
0&
19
b11111111111111111111111 8
b11111111111111111111111 G
1-
#2010
0-
#2015
b100 ^
b11 a
09
1-
#2020
0-
#2025
b101 ^
b100 a
1-
#2030
0-
#2035
b110 ^
b101 a
1-
#2040
0-
#2045
b0 ^
b11111111111111111111111 )
b11111111111111111111111 E
b11111111111111111111111 f
b1110 *
b1110 D
b1110 e
b110 a
1-
#2050
0-
#2055
0+
b0 a
1,
1(
1g
1-
#2060
0-
#2065
0(
0g
0,
b1110 ?
1-
#2070
0-
#2075
b0 f"
1-
#2080
0-
#2085
b1 f"
1-
#2090
0-
#2095
b10 f"
1-
#2100
0-
#2105
b11 f"
1-
#2110
0-
#2115
b100 f"
1-
#2120
0-
#2125
b1 ^
15
1.
b1111 /
b1111 A
b1000001001100 ;
b1000001001100 I
b1100100001000000100110101100001011110000010000001001110011011110111001001101101011000010110110001101001011110100110010101100100 _"
b1111 ^"
b1111111011111111111111111111111 \"
b1000001001100 ["
b101 f"
1-
#2130
0-
#2135
1+
b1 a
b1111 b
b1000001001100 h
b10 ^
0.
05
1-
#2140
0-
#2145
b1000001001100 '
b1000001001100 \
1&
b10 a
1-
#2150
0-
#2155
b11 ^
0&
19
b1111111011111111111111111111111 8
b1111111011111111111111111111111 G
1-
#2160
0-
#2165
b100 ^
b11 a
09
1-
#2170
0-
#2175
b101 ^
b100 a
1-
#2180
0-
#2185
b110 ^
b101 a
1-
#2190
0-
#2195
b0 ^
b110 a
b1111111011111111111111111111111 )
b1111111011111111111111111111111 E
b1111111011111111111111111111111 f
b1111 *
b1111 D
b1111 e
1-
#2200
0-
#2205
0+
1,
1(
1g
b0 a
1-
#2210
0-
#2215
0(
0g
0,
b1111 ?
1-
#2220
0-
#2225
b0 f"
1-
#2230
0-
#2235
b1 f"
1-
#2240
0-
#2245
b10 f"
1-
#2250
0-
#2255
b11 f"
1-
#2260
0-
#2265
b100 f"
1-
#2270
0-
#2275
b111 ^
17
1.
b111111100000000000000000000000 1
b111111100000000000000000000000 C
b10000000000000 ;
b10000000000000 I
b10100110111010001101111011100100110010100100000001100010010111000110000 d"
b111111100000000000000000000000 c"
b0 b"
b10000000000000 `"
b101 f"
1-
#2280
0-
#2285
1+
b111111100000000000000000000000 i
b10000000000000 h
b111 a
b1000 ^
0.
07
1-
#2290
0-
#2295
b1000 a
b111111100000000000000000000000 %
b111111100000000000000000000000 ]
b10000000000000 '
b10000000000000 \
1$
1-
#2300
0-
#2305
b1001 ^
0$
19
1-
#2310
0-
#2315
b0 ^
b1001 a
09
1-
#2320
0-
#2325
0+
1,
b0 a
1-
#2330
0-
#2335
0,
1-
#2340
0-
#2345
1-
#2350
0-
#2355
b0 f"
b10000 ?
b10000000000000 a"
1-
#2360
0-
#2365
b1 f"
1-
#2370
0-
#2375
b10 f"
1-
#2380
0-
#2385
b11 f"
1-
#2390
0-
#2395
b100 f"
1-
#2400
0-
#2405
b111 ^
17
1.
b100 2
b100 F
b1000000000000000000000000000000 1
b1000000000000000000000000000000 C
b10100110111010001101111011100100110010100100000001100100010111000110000 d"
b1000000000000000000000000000000 c"
b100 b"
b101 f"
1-
#2410
0-
#2415
1+
b111 a
b1000000000000000000000000000000 i
b10000000000100 h
b1000 ^
0.
07
1-
#2420
0-
#2425
b1000000000000000000000000000000 %
b1000000000000000000000000000000 ]
b10000000000100 '
b10000000000100 \
1$
b1000 a
1-
#2430
0-
#2435
b1001 ^
0$
19
1-
#2440
0-
#2445
b0 ^
b1001 a
09
1-
#2450
0-
#2455
0+
b0 a
1,
1-
#2460
0-
#2465
0,
1-
#2470
0-
#2475
1-
#2480
0-
#2485
b0 f"
b10001 ?
b10000000000100 a"
1-
#2490
0-
#2495
b1 f"
1-
#2500
0-
#2505
b10 f"
1-
#2510
0-
#2515
b11 f"
1-
#2520
0-
#2525
b100 f"
1-
#2530
0-
#2535
b111 ^
17
1.
b1000 2
b1000 F
b10111111100000000000000000000000 1
b10111111100000000000000000000000 C
b1010011011101000110111101110010011001010010000000101101001100010010111000110000 d"
b10111111100000000000000000000000 c"
b1000 b"
b101 f"
1-
#2540
0-
